PCBNEW-LibModule-V1  2022-06-20 00:31:07
# encoding utf-8
Units mm
$INDEX
877159002
$EndINDEX
$MODULE 877159002
Po 0 0 0 15 62afb1bb 00000000 ~~
Li 877159002
Cd 87715-9002-3
Kw Connector
Sc 0
At STD
AR 
Op 0 0 0
T0 10.650 1.25 1.27 1.27 0 0.254 N V 21 N "J**"
T1 10.650 1.25 1.27 1.27 0 0.254 N I 21 N "877159002"
DS -1.85 -2.5 23.15 -2.5 0.2 24
DS 23.15 -2.5 23.15 5 0.2 24
DS 23.15 5 -1.85 5 0.2 24
DS -1.85 5 -1.85 -2.5 0.2 24
DS -2.85 -3.669 24.15 -3.669 0.1 24
DS 24.15 -3.669 24.15 6.169 0.1 24
DS 24.15 6.169 -2.85 6.169 0.1 24
DS -2.85 6.169 -2.85 -3.669 0.1 24
DS -0.35 -2.5 -1.85 -2.5 0.1 21
DS -1.85 -2.5 -1.85 5 0.1 21
DS -1.85 5 -0.35 5 0.1 21
DS 20.65 -2.5 23.15 -2.5 0.1 21
DS 23.15 -2.5 23.15 5 0.1 21
DS 23.15 5 20.65 5 0.1 21
$PAD
Po 0.000 -0
Sh "A1" R 1.337 1.337 0 0 900
Dr 0.78 0 0
At STD N 00E0FFFF
Ne 0 ""
$EndPAD
$PAD
Po 1.000 -2
Sh "A2" C 1.337 1.337 0 0 900
Dr 0.78 0 0
At STD N 00E0FFFF
Ne 0 ""
$EndPAD
$PAD
Po 2.000 -0
Sh "A3" C 1.337 1.337 0 0 900
Dr 0.78 0 0
At STD N 00E0FFFF
Ne 0 ""
$EndPAD
$PAD
Po 3.000 -2
Sh "A4" C 1.337 1.337 0 0 900
Dr 0.78 0 0
At STD N 00E0FFFF
Ne 0 ""
$EndPAD
$PAD
Po 4.000 -0
Sh "A5" C 1.337 1.337 0 0 900
Dr 0.78 0 0
At STD N 00E0FFFF
Ne 0 ""
$EndPAD
$PAD
Po 5.000 -2
Sh "A6" C 1.337 1.337 0 0 900
Dr 0.78 0 0
At STD N 00E0FFFF
Ne 0 ""
$EndPAD
$PAD
Po 6.000 -0
Sh "A7" C 1.337 1.337 0 0 900
Dr 0.78 0 0
At STD N 00E0FFFF
Ne 0 ""
$EndPAD
$PAD
Po 7.000 -2
Sh "A8" C 1.337 1.337 0 0 900
Dr 0.78 0 0
At STD N 00E0FFFF
Ne 0 ""
$EndPAD
$PAD
Po 8.000 -0
Sh "A9" C 1.337 1.337 0 0 900
Dr 0.78 0 0
At STD N 00E0FFFF
Ne 0 ""
$EndPAD
$PAD
Po 9.000 -2
Sh "A10" C 1.337 1.337 0 0 900
Dr 0.78 0 0
At STD N 00E0FFFF
Ne 0 ""
$EndPAD
$PAD
Po 10.000 -0
Sh "A11" C 1.337 1.337 0 0 900
Dr 0.78 0 0
At STD N 00E0FFFF
Ne 0 ""
$EndPAD
$PAD
Po 13.000 -2
Sh "A12" C 1.337 1.337 0 0 900
Dr 0.78 0 0
At STD N 00E0FFFF
Ne 0 ""
$EndPAD
$PAD
Po 14.000 -0
Sh "A13" C 1.337 1.337 0 0 900
Dr 0.78 0 0
At STD N 00E0FFFF
Ne 0 ""
$EndPAD
$PAD
Po 15.000 -2
Sh "A14" C 1.337 1.337 0 0 900
Dr 0.78 0 0
At STD N 00E0FFFF
Ne 0 ""
$EndPAD
$PAD
Po 16.000 -0
Sh "A15" C 1.337 1.337 0 0 900
Dr 0.78 0 0
At STD N 00E0FFFF
Ne 0 ""
$EndPAD
$PAD
Po 17.000 -2
Sh "A16" C 1.337 1.337 0 0 900
Dr 0.78 0 0
At STD N 00E0FFFF
Ne 0 ""
$EndPAD
$PAD
Po 18.000 -0
Sh "A17" C 1.337 1.337 0 0 900
Dr 0.78 0 0
At STD N 00E0FFFF
Ne 0 ""
$EndPAD
$PAD
Po 19.000 -2
Sh "A18" C 1.337 1.337 0 0 900
Dr 0.78 0 0
At STD N 00E0FFFF
Ne 0 ""
$EndPAD
$PAD
Po 0.000 2.5
Sh "B1" C 1.337 1.337 0 0 900
Dr 0.78 0 0
At STD N 00E0FFFF
Ne 0 ""
$EndPAD
$PAD
Po 1.000 4.5
Sh "B2" C 1.337 1.337 0 0 900
Dr 0.78 0 0
At STD N 00E0FFFF
Ne 0 ""
$EndPAD
$PAD
Po 2.000 2.5
Sh "B3" C 1.337 1.337 0 0 900
Dr 0.78 0 0
At STD N 00E0FFFF
Ne 0 ""
$EndPAD
$PAD
Po 3.000 4.5
Sh "B4" C 1.337 1.337 0 0 900
Dr 0.78 0 0
At STD N 00E0FFFF
Ne 0 ""
$EndPAD
$PAD
Po 4.000 2.5
Sh "B5" C 1.337 1.337 0 0 900
Dr 0.78 0 0
At STD N 00E0FFFF
Ne 0 ""
$EndPAD
$PAD
Po 5.000 4.5
Sh "B6" C 1.337 1.337 0 0 900
Dr 0.78 0 0
At STD N 00E0FFFF
Ne 0 ""
$EndPAD
$PAD
Po 6.000 2.5
Sh "B7" C 1.337 1.337 0 0 900
Dr 0.78 0 0
At STD N 00E0FFFF
Ne 0 ""
$EndPAD
$PAD
Po 7.000 4.5
Sh "B8" C 1.337 1.337 0 0 900
Dr 0.78 0 0
At STD N 00E0FFFF
Ne 0 ""
$EndPAD
$PAD
Po 8.000 2.5
Sh "B9" C 1.337 1.337 0 0 900
Dr 0.78 0 0
At STD N 00E0FFFF
Ne 0 ""
$EndPAD
$PAD
Po 9.000 4.5
Sh "B10" C 1.337 1.337 0 0 900
Dr 0.78 0 0
At STD N 00E0FFFF
Ne 0 ""
$EndPAD
$PAD
Po 10.000 2.5
Sh "B11" C 1.337 1.337 0 0 900
Dr 0.78 0 0
At STD N 00E0FFFF
Ne 0 ""
$EndPAD
$PAD
Po 13.000 4.5
Sh "B12" C 1.337 1.337 0 0 900
Dr 0.78 0 0
At STD N 00E0FFFF
Ne 0 ""
$EndPAD
$PAD
Po 14.000 2.5
Sh "B13" C 1.337 1.337 0 0 900
Dr 0.78 0 0
At STD N 00E0FFFF
Ne 0 ""
$EndPAD
$PAD
Po 15.000 4.5
Sh "B14" C 1.337 1.337 0 0 900
Dr 0.78 0 0
At STD N 00E0FFFF
Ne 0 ""
$EndPAD
$PAD
Po 16.000 2.5
Sh "B15" C 1.337 1.337 0 0 900
Dr 0.78 0 0
At STD N 00E0FFFF
Ne 0 ""
$EndPAD
$PAD
Po 17.000 4.5
Sh "B16" C 1.337 1.337 0 0 900
Dr 0.78 0 0
At STD N 00E0FFFF
Ne 0 ""
$EndPAD
$PAD
Po 18.000 2.5
Sh "B17" C 1.337 1.337 0 0 900
Dr 0.78 0 0
At STD N 00E0FFFF
Ne 0 ""
$EndPAD
$PAD
Po 19.000 4.5
Sh "B18" C 1.337 1.337 0 0 900
Dr 0.78 0 0
At STD N 00E0FFFF
Ne 0 ""
$EndPAD
$PAD
Po 11.650 1.25
Sh "MH1" C 1.200 1.200 0 0 900
Dr 2.4 0 0
At STD N 00E0FFFF
Ne 0 ""
$EndPAD
$PAD
Po 20.800 1.25
Sh "MH2" C 1.200 1.200 0 0 900
Dr 2.4 0 0
At STD N 00E0FFFF
Ne 0 ""
$EndPAD
$EndMODULE 877159002
$EndLIBRARY
