PCBNEW-LibModule-V1  2023-03-29 04:05:22
# encoding utf-8
Units mm
$INDEX
09651627810
$EndINDEX
$MODULE 09651627810
Po 0 0 0 15 6423aaf2 00000000 ~~
Li 09651627810
Cd 09651627810-2
Kw Connector
Sc 0
At STD
AR 
Op 0 0 0
T0 5.480 8.47 1.27 1.27 0 0.254 N V 21 N "J**"
T1 5.480 8.47 1.27 1.27 0 0.254 N I 21 N "09651627810"
DS -10.12 -2.03 21.08 -2.03 0.1 24
DS 21.08 -2.03 21.08 12.97 0.1 24
DS 21.08 12.97 -10.12 12.97 0.1 24
DS -10.12 12.97 -10.12 -2.03 0.1 24
DS -10.12 -2.03 21.08 -2.03 0.2 21
DS 21.08 -2.03 21.08 12.97 0.2 21
DS 21.08 12.97 -10.12 12.97 0.2 21
DS -10.12 12.97 -10.12 -2.03 0.2 21
DS -11.12 -3.03 22.08 -3.03 0.1 24
DS 22.08 -3.03 22.08 19.97 0.1 24
DS 22.08 19.97 -11.12 19.97 0.1 24
DS -11.12 19.97 -11.12 -3.03 0.1 24
DS -2.02 12.97 -2.02 18.97 0.1 24
DS -2.02 18.97 12.98 18.97 0.1 24
DS 12.98 18.97 12.98 12.97 0.1 24
DS -2.02 12.97 -2.02 18.97 0.2 21
DS -2.02 18.97 12.98 18.97 0.2 21
DS 12.98 18.97 12.98 12.97 0.2 21
DS 0 -2.5 0 -2.5 0.1 21
DS 0 -2.6 0 -2.6 0.1 21
DA -0.1 -2.55 0.000 -2.5 -1800 0.1 21
DA -0.1 -2.55 0.000 -2.6 -1800 0.1 21
$PAD
Po 0.000 -0
Sh "1" R 1.500 1.500 0 0 900
Dr 1 0 0
At STD N 00E0FFFF
Ne 0 ""
$EndPAD
$PAD
Po 2.740 -0
Sh "2" C 1.500 1.500 0 0 900
Dr 1 0 0
At STD N 00E0FFFF
Ne 0 ""
$EndPAD
$PAD
Po 5.480 -0
Sh "3" C 1.500 1.500 0 0 900
Dr 1 0 0
At STD N 00E0FFFF
Ne 0 ""
$EndPAD
$PAD
Po 8.220 -0
Sh "4" C 1.500 1.500 0 0 900
Dr 1 0 0
At STD N 00E0FFFF
Ne 0 ""
$EndPAD
$PAD
Po 10.960 -0
Sh "5" C 1.500 1.500 0 0 900
Dr 1 0 0
At STD N 00E0FFFF
Ne 0 ""
$EndPAD
$PAD
Po 1.370 2.54
Sh "6" C 1.500 1.500 0 0 900
Dr 1 0 0
At STD N 00E0FFFF
Ne 0 ""
$EndPAD
$PAD
Po 4.110 2.54
Sh "7" C 1.500 1.500 0 0 900
Dr 1 0 0
At STD N 00E0FFFF
Ne 0 ""
$EndPAD
$PAD
Po 6.850 2.54
Sh "8" C 1.500 1.500 0 0 900
Dr 1 0 0
At STD N 00E0FFFF
Ne 0 ""
$EndPAD
$PAD
Po 9.590 2.54
Sh "9" C 1.500 1.500 0 0 900
Dr 1 0 0
At STD N 00E0FFFF
Ne 0 ""
$EndPAD
$PAD
Po -7.020 1.27
Sh "MH1" C 4.650 4.650 0 0 900
Dr 3.1 0 0
At STD N 00E0FFFF
Ne 0 ""
$EndPAD
$PAD
Po 17.980 1.27
Sh "MH2" C 4.650 4.650 0 0 900
Dr 3.1 0 0
At STD N 00E0FFFF
Ne 0 ""
$EndPAD
$EndMODULE 09651627810
$EndLIBRARY
