PCBNEW-LibModule-V1  2022-07-08 17:20:13
# encoding utf-8
Units mm
$INDEX
57492651
$EndINDEX
$MODULE 57492651
Po 0 0 0 15 62c8593d 00000000 ~~
Li 57492651
Cd 5749265-1-1
Kw Connector
Sc 0
At STD
AR 
Op 0 0 0
T0 -1.300 -2.095 1.27 1.27 0 0.254 N V 21 N "J**"
T1 -1.300 -2.095 1.27 1.27 0 0.254 N I 21 N "57492651"
DS -8.3 -8.51 5.7 -8.51 0.2 24
DS 5.7 -8.51 5.7 4.32 0.2 24
DS 5.7 4.32 -8.3 4.32 0.2 24
DS -8.3 4.32 -8.3 -8.51 0.2 24
DS -10.838 -9.51 8.238 -9.51 0.1 24
DS 8.238 -9.51 8.238 5.32 0.1 24
DS 8.238 5.32 -10.838 5.32 0.1 24
DS -10.838 5.32 -10.838 -9.51 0.1 24
DS -8.3 -5.54 -8.3 -8.51 0.1 21
DS -8.3 -8.51 5.7 -8.51 0.1 21
DS 5.7 -8.51 5.7 -5.54 0.1 21
DS -8.3 -0.46 -8.3 4.32 0.1 21
DS -8.3 4.32 5.46 4.32 0.1 21
DS 5.46 4.32 5.7 4.32 0.1 21
DS 5.7 4.32 5.7 -0.46 0.1 21
$PAD
Po 0.000 -0
Sh "1" C 1.509 1.509 0 0 900
Dr 0.97 0 0
At STD N 00E0FFFF
Ne 0 ""
$EndPAD
$PAD
Po -2.600 -0
Sh "2" C 1.509 1.509 0 0 900
Dr 0.97 0 0
At STD N 00E0FFFF
Ne 0 ""
$EndPAD
$PAD
Po 2.050 -0
Sh "3" C 1.509 1.509 0 0 900
Dr 0.97 0 0
At STD N 00E0FFFF
Ne 0 ""
$EndPAD
$PAD
Po -4.650 -0
Sh "4" C 1.509 1.509 0 0 900
Dr 0.97 0 0
At STD N 00E0FFFF
Ne 0 ""
$EndPAD
$PAD
Po 2.050 2.49
Sh "5" C 1.509 1.509 0 0 900
Dr 0.97 0 0
At STD N 00E0FFFF
Ne 0 ""
$EndPAD
$PAD
Po -4.650 2.49
Sh "6" C 1.509 1.509 0 0 900
Dr 0.97 0 0
At STD N 00E0FFFF
Ne 0 ""
$EndPAD
$PAD
Po -1.300 -3.81
Sh "7" C 3.555 3.555 0 0 900
Dr 2.37 0 0
At STD N 00E0FFFF
Ne 0 ""
$EndPAD
$PAD
Po -8.060 -3
Sh "8" C 3.555 3.555 0 0 900
Dr 2.37 0 0
At STD N 00E0FFFF
Ne 0 ""
$EndPAD
$PAD
Po 5.460 -3
Sh "9" C 3.555 3.555 0 0 900
Dr 2.37 0 0
At STD N 00E0FFFF
Ne 0 ""
$EndPAD
$EndMODULE 57492651
$EndLIBRARY
