(kicad_symbol_lib (version 20211014) (generator kicad_symbol_editor)
  (symbol "87715-9002" (pin_names (offset 0.762)) (in_bom yes) (on_board yes)
    (property "Reference" "J" (id 0) (at 21.59 7.62 0)
      (effects (font (size 1.27 1.27)) (justify left))
    )
    (property "Value" "87715-9002" (id 1) (at 21.59 5.08 0)
      (effects (font (size 1.27 1.27)) (justify left))
    )
    (property "Footprint" "877159002" (id 2) (at 21.59 2.54 0)
      (effects (font (size 1.27 1.27)) (justify left) hide)
    )
    (property "Datasheet" "https://www.molex.com/pdm_docs/sd/877159002_sd.pdf" (id 3) (at 21.59 0 0)
      (effects (font (size 1.27 1.27)) (justify left) hide)
    )
    (property "Description" "MOLEX - 87715-9002 - CARDEDGE CONN, PCIE, DUAL SIDE, 36POS" (id 4) (at 21.59 -2.54 0)
      (effects (font (size 1.27 1.27)) (justify left) hide)
    )
    (property "Height" "11.2" (id 5) (at 21.59 -5.08 0)
      (effects (font (size 1.27 1.27)) (justify left) hide)
    )
    (property "Manufacturer_Name" "Molex" (id 6) (at 21.59 -7.62 0)
      (effects (font (size 1.27 1.27)) (justify left) hide)
    )
    (property "Manufacturer_Part_Number" "87715-9002" (id 7) (at 21.59 -10.16 0)
      (effects (font (size 1.27 1.27)) (justify left) hide)
    )
    (property "Mouser Part Number" "538-87715-9002" (id 8) (at 21.59 -12.7 0)
      (effects (font (size 1.27 1.27)) (justify left) hide)
    )
    (property "Mouser Price/Stock" "https://www.mouser.co.uk/ProductDetail/Molex/87715-9002?qs=Yt4guSsLbcpuHqvKTp6hUQ%3D%3D" (id 9) (at 21.59 -15.24 0)
      (effects (font (size 1.27 1.27)) (justify left) hide)
    )
    (property "Arrow Part Number" "" (id 10) (at 21.59 -17.78 0)
      (effects (font (size 1.27 1.27)) (justify left) hide)
    )
    (property "Arrow Price/Stock" "" (id 11) (at 21.59 -20.32 0)
      (effects (font (size 1.27 1.27)) (justify left) hide)
    )
    (property "ki_description" "MOLEX - 87715-9002 - CARDEDGE CONN, PCIE, DUAL SIDE, 36POS" (id 12) (at 0 0 0)
      (effects (font (size 1.27 1.27)) hide)
    )
    (symbol "87715-9002_0_0"
      (pin passive line (at 0 0 0) (length 5.08)
        (name "A1" (effects (font (size 1.27 1.27))))
        (number "A1" (effects (font (size 1.27 1.27))))
      )
      (pin passive line (at 0 -22.86 0) (length 5.08)
        (name "A10" (effects (font (size 1.27 1.27))))
        (number "A10" (effects (font (size 1.27 1.27))))
      )
      (pin passive line (at 0 -25.4 0) (length 5.08)
        (name "A11" (effects (font (size 1.27 1.27))))
        (number "A11" (effects (font (size 1.27 1.27))))
      )
      (pin passive line (at 0 -27.94 0) (length 5.08)
        (name "A12" (effects (font (size 1.27 1.27))))
        (number "A12" (effects (font (size 1.27 1.27))))
      )
      (pin passive line (at 0 -30.48 0) (length 5.08)
        (name "A13" (effects (font (size 1.27 1.27))))
        (number "A13" (effects (font (size 1.27 1.27))))
      )
      (pin passive line (at 0 -33.02 0) (length 5.08)
        (name "A14" (effects (font (size 1.27 1.27))))
        (number "A14" (effects (font (size 1.27 1.27))))
      )
      (pin passive line (at 0 -35.56 0) (length 5.08)
        (name "A15" (effects (font (size 1.27 1.27))))
        (number "A15" (effects (font (size 1.27 1.27))))
      )
      (pin passive line (at 0 -38.1 0) (length 5.08)
        (name "A16" (effects (font (size 1.27 1.27))))
        (number "A16" (effects (font (size 1.27 1.27))))
      )
      (pin passive line (at 0 -40.64 0) (length 5.08)
        (name "A17" (effects (font (size 1.27 1.27))))
        (number "A17" (effects (font (size 1.27 1.27))))
      )
      (pin passive line (at 0 -43.18 0) (length 5.08)
        (name "A18" (effects (font (size 1.27 1.27))))
        (number "A18" (effects (font (size 1.27 1.27))))
      )
      (pin passive line (at 0 -2.54 0) (length 5.08)
        (name "A2" (effects (font (size 1.27 1.27))))
        (number "A2" (effects (font (size 1.27 1.27))))
      )
      (pin passive line (at 0 -5.08 0) (length 5.08)
        (name "A3" (effects (font (size 1.27 1.27))))
        (number "A3" (effects (font (size 1.27 1.27))))
      )
      (pin passive line (at 0 -7.62 0) (length 5.08)
        (name "A4" (effects (font (size 1.27 1.27))))
        (number "A4" (effects (font (size 1.27 1.27))))
      )
      (pin passive line (at 0 -10.16 0) (length 5.08)
        (name "A5" (effects (font (size 1.27 1.27))))
        (number "A5" (effects (font (size 1.27 1.27))))
      )
      (pin passive line (at 0 -12.7 0) (length 5.08)
        (name "A6" (effects (font (size 1.27 1.27))))
        (number "A6" (effects (font (size 1.27 1.27))))
      )
      (pin passive line (at 0 -15.24 0) (length 5.08)
        (name "A7" (effects (font (size 1.27 1.27))))
        (number "A7" (effects (font (size 1.27 1.27))))
      )
      (pin passive line (at 0 -17.78 0) (length 5.08)
        (name "A8" (effects (font (size 1.27 1.27))))
        (number "A8" (effects (font (size 1.27 1.27))))
      )
      (pin passive line (at 0 -20.32 0) (length 5.08)
        (name "A9" (effects (font (size 1.27 1.27))))
        (number "A9" (effects (font (size 1.27 1.27))))
      )
      (pin passive line (at 25.4 0 180) (length 5.08)
        (name "B1" (effects (font (size 1.27 1.27))))
        (number "B1" (effects (font (size 1.27 1.27))))
      )
      (pin passive line (at 25.4 -22.86 180) (length 5.08)
        (name "B10" (effects (font (size 1.27 1.27))))
        (number "B10" (effects (font (size 1.27 1.27))))
      )
      (pin passive line (at 25.4 -25.4 180) (length 5.08)
        (name "B11" (effects (font (size 1.27 1.27))))
        (number "B11" (effects (font (size 1.27 1.27))))
      )
      (pin passive line (at 25.4 -27.94 180) (length 5.08)
        (name "B12" (effects (font (size 1.27 1.27))))
        (number "B12" (effects (font (size 1.27 1.27))))
      )
      (pin passive line (at 25.4 -30.48 180) (length 5.08)
        (name "B13" (effects (font (size 1.27 1.27))))
        (number "B13" (effects (font (size 1.27 1.27))))
      )
      (pin passive line (at 25.4 -33.02 180) (length 5.08)
        (name "B14" (effects (font (size 1.27 1.27))))
        (number "B14" (effects (font (size 1.27 1.27))))
      )
      (pin passive line (at 25.4 -35.56 180) (length 5.08)
        (name "B15" (effects (font (size 1.27 1.27))))
        (number "B15" (effects (font (size 1.27 1.27))))
      )
      (pin passive line (at 25.4 -38.1 180) (length 5.08)
        (name "B16" (effects (font (size 1.27 1.27))))
        (number "B16" (effects (font (size 1.27 1.27))))
      )
      (pin passive line (at 25.4 -40.64 180) (length 5.08)
        (name "B17" (effects (font (size 1.27 1.27))))
        (number "B17" (effects (font (size 1.27 1.27))))
      )
      (pin passive line (at 25.4 -43.18 180) (length 5.08)
        (name "B18" (effects (font (size 1.27 1.27))))
        (number "B18" (effects (font (size 1.27 1.27))))
      )
      (pin passive line (at 25.4 -2.54 180) (length 5.08)
        (name "B2" (effects (font (size 1.27 1.27))))
        (number "B2" (effects (font (size 1.27 1.27))))
      )
      (pin passive line (at 25.4 -5.08 180) (length 5.08)
        (name "B3" (effects (font (size 1.27 1.27))))
        (number "B3" (effects (font (size 1.27 1.27))))
      )
      (pin passive line (at 25.4 -7.62 180) (length 5.08)
        (name "B4" (effects (font (size 1.27 1.27))))
        (number "B4" (effects (font (size 1.27 1.27))))
      )
      (pin passive line (at 25.4 -10.16 180) (length 5.08)
        (name "B5" (effects (font (size 1.27 1.27))))
        (number "B5" (effects (font (size 1.27 1.27))))
      )
      (pin passive line (at 25.4 -12.7 180) (length 5.08)
        (name "B6" (effects (font (size 1.27 1.27))))
        (number "B6" (effects (font (size 1.27 1.27))))
      )
      (pin passive line (at 25.4 -15.24 180) (length 5.08)
        (name "B7" (effects (font (size 1.27 1.27))))
        (number "B7" (effects (font (size 1.27 1.27))))
      )
      (pin passive line (at 25.4 -17.78 180) (length 5.08)
        (name "B8" (effects (font (size 1.27 1.27))))
        (number "B8" (effects (font (size 1.27 1.27))))
      )
      (pin passive line (at 25.4 -20.32 180) (length 5.08)
        (name "B9" (effects (font (size 1.27 1.27))))
        (number "B9" (effects (font (size 1.27 1.27))))
      )
    )
    (symbol "87715-9002_0_1"
      (polyline
        (pts
          (xy 5.08 2.54)
          (xy 20.32 2.54)
          (xy 20.32 -45.72)
          (xy 5.08 -45.72)
          (xy 5.08 2.54)
        )
        (stroke (width 0.1524) (type default) (color 0 0 0 0))
        (fill (type none))
      )
    )
  )
)
