PCBNEW-LibModule-V1  2022-06-20 08:59:53
# encoding utf-8
Units mm
$INDEX
28657410
$EndINDEX
$MODULE 28657410
Po 0 0 0 15 62b028f9 00000000 ~~
Li 28657410
Cd 28-6574-10-1
Kw Connector
Sc 0
At STD
AR 
Op 0 0 0
T0 14.525 -7.62 1.27 1.27 0 0.254 N V 21 N "J**"
T1 14.525 -7.62 1.27 1.27 0 0.254 N I 21 N "28657410"
DS -10.75 -19.05 39.8 -19.05 0.2 24
DS 39.8 -19.05 39.8 3.81 0.2 24
DS 39.8 3.81 -10.75 3.81 0.2 24
DS -10.75 3.81 -10.75 -19.05 0.2 24
DS -10.75 -19.05 39.8 -19.05 0.1 21
DS 39.8 -19.05 39.8 3.81 0.1 21
DS 39.8 3.81 -10.75 3.81 0.1 21
DS -10.75 3.81 -10.75 -19.05 0.1 21
DS -11.75 -20.05 40.8 -20.05 0.1 24
DS 40.8 -20.05 40.8 4.81 0.1 24
DS 40.8 4.81 -11.75 4.81 0.1 24
DS -11.75 4.81 -11.75 -20.05 0.1 24
$PAD
Po 0.000 -0
Sh "1" C 1.403 1.403 0 0 900
Dr 0.8636 0 0
At STD N 00E0FFFF
Ne 0 ""
$EndPAD
$PAD
Po 2.540 -0
Sh "2" C 1.403 1.403 0 0 900
Dr 0.8636 0 0
At STD N 00E0FFFF
Ne 0 ""
$EndPAD
$PAD
Po 5.080 -0
Sh "3" C 1.403 1.403 0 0 900
Dr 0.8636 0 0
At STD N 00E0FFFF
Ne 0 ""
$EndPAD
$PAD
Po 7.620 -0
Sh "4" C 1.403 1.403 0 0 900
Dr 0.8636 0 0
At STD N 00E0FFFF
Ne 0 ""
$EndPAD
$PAD
Po 10.160 -0
Sh "5" C 1.403 1.403 0 0 900
Dr 0.8636 0 0
At STD N 00E0FFFF
Ne 0 ""
$EndPAD
$PAD
Po 12.700 -0
Sh "6" C 1.403 1.403 0 0 900
Dr 0.8636 0 0
At STD N 00E0FFFF
Ne 0 ""
$EndPAD
$PAD
Po 15.240 -0
Sh "7" C 1.403 1.403 0 0 900
Dr 0.8636 0 0
At STD N 00E0FFFF
Ne 0 ""
$EndPAD
$PAD
Po 17.780 -0
Sh "8" C 1.403 1.403 0 0 900
Dr 0.8636 0 0
At STD N 00E0FFFF
Ne 0 ""
$EndPAD
$PAD
Po 20.320 -0
Sh "9" C 1.403 1.403 0 0 900
Dr 0.8636 0 0
At STD N 00E0FFFF
Ne 0 ""
$EndPAD
$PAD
Po 22.860 -0
Sh "10" C 1.403 1.403 0 0 900
Dr 0.8636 0 0
At STD N 00E0FFFF
Ne 0 ""
$EndPAD
$PAD
Po 25.400 -0
Sh "11" C 1.403 1.403 0 0 900
Dr 0.8636 0 0
At STD N 00E0FFFF
Ne 0 ""
$EndPAD
$PAD
Po 27.940 -0
Sh "12" C 1.403 1.403 0 0 900
Dr 0.8636 0 0
At STD N 00E0FFFF
Ne 0 ""
$EndPAD
$PAD
Po 30.480 -0
Sh "13" C 1.403 1.403 0 0 900
Dr 0.8636 0 0
At STD N 00E0FFFF
Ne 0 ""
$EndPAD
$PAD
Po 33.020 -0
Sh "14" C 1.403 1.403 0 0 900
Dr 0.8636 0 0
At STD N 00E0FFFF
Ne 0 ""
$EndPAD
$PAD
Po 33.020 -15.24
Sh "15" C 1.403 1.403 0 0 900
Dr 0.8636 0 0
At STD N 00E0FFFF
Ne 0 ""
$EndPAD
$PAD
Po 30.480 -15.24
Sh "16" C 1.403 1.403 0 0 900
Dr 0.8636 0 0
At STD N 00E0FFFF
Ne 0 ""
$EndPAD
$PAD
Po 27.940 -15.24
Sh "17" C 1.403 1.403 0 0 900
Dr 0.8636 0 0
At STD N 00E0FFFF
Ne 0 ""
$EndPAD
$PAD
Po 25.400 -15.24
Sh "18" C 1.403 1.403 0 0 900
Dr 0.8636 0 0
At STD N 00E0FFFF
Ne 0 ""
$EndPAD
$PAD
Po 22.860 -15.24
Sh "19" C 1.403 1.403 0 0 900
Dr 0.8636 0 0
At STD N 00E0FFFF
Ne 0 ""
$EndPAD
$PAD
Po 20.320 -15.24
Sh "20" C 1.403 1.403 0 0 900
Dr 0.8636 0 0
At STD N 00E0FFFF
Ne 0 ""
$EndPAD
$PAD
Po 17.780 -15.24
Sh "21" C 1.403 1.403 0 0 900
Dr 0.8636 0 0
At STD N 00E0FFFF
Ne 0 ""
$EndPAD
$PAD
Po 15.240 -15.24
Sh "22" C 1.403 1.403 0 0 900
Dr 0.8636 0 0
At STD N 00E0FFFF
Ne 0 ""
$EndPAD
$PAD
Po 12.700 -15.24
Sh "23" C 1.403 1.403 0 0 900
Dr 0.8636 0 0
At STD N 00E0FFFF
Ne 0 ""
$EndPAD
$PAD
Po 10.160 -15.24
Sh "24" C 1.403 1.403 0 0 900
Dr 0.8636 0 0
At STD N 00E0FFFF
Ne 0 ""
$EndPAD
$PAD
Po 7.620 -15.24
Sh "25" C 1.403 1.403 0 0 900
Dr 0.8636 0 0
At STD N 00E0FFFF
Ne 0 ""
$EndPAD
$PAD
Po 5.080 -15.24
Sh "26" C 1.403 1.403 0 0 900
Dr 0.8636 0 0
At STD N 00E0FFFF
Ne 0 ""
$EndPAD
$PAD
Po 2.540 -15.24
Sh "27" C 1.403 1.403 0 0 900
Dr 0.8636 0 0
At STD N 00E0FFFF
Ne 0 ""
$EndPAD
$PAD
Po 0.000 -15.24
Sh "28" C 1.403 1.403 0 0 900
Dr 0.8636 0 0
At STD N 00E0FFFF
Ne 0 ""
$EndPAD
$PAD
Po -8.510 -7.62
Sh "29" C 2.475 2.475 0 0 900
Dr 1.65 0 0
At STD N 00E0FFFF
Ne 0 ""
$EndPAD
$PAD
Po 37.590 -7.62
Sh "30" C 2.475 2.475 0 0 900
Dr 1.65 0 0
At STD N 00E0FFFF
Ne 0 ""
$EndPAD
$EndMODULE 28657410
$EndLIBRARY
