(module "28657410" (layer F.Cu)
  (descr "28-6574-10-1")
  (tags "Connector")
  (fp_text reference J** (at 14.525 -7.62) (layer F.SilkS)
    (effects (font (size 1.27 1.27) (thickness 0.254)))
  )
  (fp_text user %R (at 14.525 -7.62) (layer F.Fab)
    (effects (font (size 1.27 1.27) (thickness 0.254)))
  )
  (fp_text value "28657410" (at 14.525 -7.62) (layer F.SilkS) hide
    (effects (font (size 1.27 1.27) (thickness 0.254)))
  )
  (fp_line (start -10.75 -19.05) (end 39.8 -19.05) (layer F.Fab) (width 0.2))
  (fp_line (start 39.8 -19.05) (end 39.8 3.81) (layer F.Fab) (width 0.2))
  (fp_line (start 39.8 3.81) (end -10.75 3.81) (layer F.Fab) (width 0.2))
  (fp_line (start -10.75 3.81) (end -10.75 -19.05) (layer F.Fab) (width 0.2))
  (fp_line (start -10.75 -19.05) (end 39.8 -19.05) (layer F.SilkS) (width 0.1))
  (fp_line (start 39.8 -19.05) (end 39.8 3.81) (layer F.SilkS) (width 0.1))
  (fp_line (start 39.8 3.81) (end -10.75 3.81) (layer F.SilkS) (width 0.1))
  (fp_line (start -10.75 3.81) (end -10.75 -19.05) (layer F.SilkS) (width 0.1))
  (fp_line (start -11.75 -20.05) (end 40.8 -20.05) (layer F.CrtYd) (width 0.1))
  (fp_line (start 40.8 -20.05) (end 40.8 4.81) (layer F.CrtYd) (width 0.1))
  (fp_line (start 40.8 4.81) (end -11.75 4.81) (layer F.CrtYd) (width 0.1))
  (fp_line (start -11.75 4.81) (end -11.75 -20.05) (layer F.CrtYd) (width 0.1))
  (pad 1 thru_hole circle (at 0.000 -0) (size 1.403 1.403) (drill 0.8636) (layers *.Cu *.Mask))
  (pad 2 thru_hole circle (at 2.540 -0) (size 1.403 1.403) (drill 0.8636) (layers *.Cu *.Mask))
  (pad 3 thru_hole circle (at 5.080 -0) (size 1.403 1.403) (drill 0.8636) (layers *.Cu *.Mask))
  (pad 4 thru_hole circle (at 7.620 -0) (size 1.403 1.403) (drill 0.8636) (layers *.Cu *.Mask))
  (pad 5 thru_hole circle (at 10.160 -0) (size 1.403 1.403) (drill 0.8636) (layers *.Cu *.Mask))
  (pad 6 thru_hole circle (at 12.700 -0) (size 1.403 1.403) (drill 0.8636) (layers *.Cu *.Mask))
  (pad 7 thru_hole circle (at 15.240 -0) (size 1.403 1.403) (drill 0.8636) (layers *.Cu *.Mask))
  (pad 8 thru_hole circle (at 17.780 -0) (size 1.403 1.403) (drill 0.8636) (layers *.Cu *.Mask))
  (pad 9 thru_hole circle (at 20.320 -0) (size 1.403 1.403) (drill 0.8636) (layers *.Cu *.Mask))
  (pad 10 thru_hole circle (at 22.860 -0) (size 1.403 1.403) (drill 0.8636) (layers *.Cu *.Mask))
  (pad 11 thru_hole circle (at 25.400 -0) (size 1.403 1.403) (drill 0.8636) (layers *.Cu *.Mask))
  (pad 12 thru_hole circle (at 27.940 -0) (size 1.403 1.403) (drill 0.8636) (layers *.Cu *.Mask))
  (pad 13 thru_hole circle (at 30.480 -0) (size 1.403 1.403) (drill 0.8636) (layers *.Cu *.Mask))
  (pad 14 thru_hole circle (at 33.020 -0) (size 1.403 1.403) (drill 0.8636) (layers *.Cu *.Mask))
  (pad 15 thru_hole circle (at 33.020 -15.24) (size 1.403 1.403) (drill 0.8636) (layers *.Cu *.Mask))
  (pad 16 thru_hole circle (at 30.480 -15.24) (size 1.403 1.403) (drill 0.8636) (layers *.Cu *.Mask))
  (pad 17 thru_hole circle (at 27.940 -15.24) (size 1.403 1.403) (drill 0.8636) (layers *.Cu *.Mask))
  (pad 18 thru_hole circle (at 25.400 -15.24) (size 1.403 1.403) (drill 0.8636) (layers *.Cu *.Mask))
  (pad 19 thru_hole circle (at 22.860 -15.24) (size 1.403 1.403) (drill 0.8636) (layers *.Cu *.Mask))
  (pad 20 thru_hole circle (at 20.320 -15.24) (size 1.403 1.403) (drill 0.8636) (layers *.Cu *.Mask))
  (pad 21 thru_hole circle (at 17.780 -15.24) (size 1.403 1.403) (drill 0.8636) (layers *.Cu *.Mask))
  (pad 22 thru_hole circle (at 15.240 -15.24) (size 1.403 1.403) (drill 0.8636) (layers *.Cu *.Mask))
  (pad 23 thru_hole circle (at 12.700 -15.24) (size 1.403 1.403) (drill 0.8636) (layers *.Cu *.Mask))
  (pad 24 thru_hole circle (at 10.160 -15.24) (size 1.403 1.403) (drill 0.8636) (layers *.Cu *.Mask))
  (pad 25 thru_hole circle (at 7.620 -15.24) (size 1.403 1.403) (drill 0.8636) (layers *.Cu *.Mask))
  (pad 26 thru_hole circle (at 5.080 -15.24) (size 1.403 1.403) (drill 0.8636) (layers *.Cu *.Mask))
  (pad 27 thru_hole circle (at 2.540 -15.24) (size 1.403 1.403) (drill 0.8636) (layers *.Cu *.Mask))
  (pad 28 thru_hole circle (at 0.000 -15.24) (size 1.403 1.403) (drill 0.8636) (layers *.Cu *.Mask))
  (pad 29 thru_hole circle (at -8.510 -7.62) (size 2.475 2.475) (drill 1.65) (layers *.Cu *.Mask))
  (pad 30 thru_hole circle (at 37.590 -7.62) (size 2.475 2.475) (drill 1.65) (layers *.Cu *.Mask))
  (model 28-6554-11.stp
    (at (xyz 0 0 0))
    (scale (xyz 1 1 1))
    (rotate (xyz 0 0 0))
  )
)
