(kicad_symbol_lib (version 20211014) (generator kicad_symbol_editor)
  (symbol "TMS4416" (in_bom yes) (on_board yes)
    (property "Reference" "U" (id 0) (at 0 17.78 0)
      (effects (font (size 1.27 1.27)))
    )
    (property "Value" "TMS4416" (id 1) (at 0 -10.16 0)
      (effects (font (size 1.27 1.27)))
    )
    (property "Footprint" "Package_DIP:DIP-18_W7.62mm_Socket" (id 2) (at 0 20.32 0)
      (effects (font (size 1.27 1.27)) hide)
    )
    (property "Datasheet" "https://www.jameco.com/Jameco/Products/ProdDS/2288023.pdf" (id 3) (at 0 -12.7 0)
      (effects (font (size 1.27 1.27)) hide)
    )
    (symbol "TMS4416_0_1"
      (rectangle (start -6.35 16.51) (end 6.35 -8.89)
        (stroke (width 0) (type default) (color 0 0 0 0))
        (fill (type background))
      )
    )
    (symbol "TMS4416_1_1"
      (pin input line (at -8.89 13.97 0) (length 2.54)
        (name "~{G}" (effects (font (size 1.27 1.27))))
        (number "1" (effects (font (size 1.27 1.27))))
      )
      (pin input line (at 8.89 -6.35 180) (length 2.54)
        (name "A7" (effects (font (size 1.27 1.27))))
        (number "10" (effects (font (size 1.27 1.27))))
      )
      (pin input line (at 8.89 -3.81 180) (length 2.54)
        (name "A3" (effects (font (size 1.27 1.27))))
        (number "11" (effects (font (size 1.27 1.27))))
      )
      (pin input line (at 8.89 -1.27 180) (length 2.54)
        (name "A2" (effects (font (size 1.27 1.27))))
        (number "12" (effects (font (size 1.27 1.27))))
      )
      (pin input line (at 8.89 1.27 180) (length 2.54)
        (name "A1" (effects (font (size 1.27 1.27))))
        (number "13" (effects (font (size 1.27 1.27))))
      )
      (pin input line (at 8.89 3.81 180) (length 2.54)
        (name "A0" (effects (font (size 1.27 1.27))))
        (number "14" (effects (font (size 1.27 1.27))))
      )
      (pin bidirectional line (at 8.89 6.35 180) (length 2.54)
        (name "DQ3" (effects (font (size 1.27 1.27))))
        (number "15" (effects (font (size 1.27 1.27))))
      )
      (pin input line (at 8.89 8.89 180) (length 2.54)
        (name "~{CAS}" (effects (font (size 1.27 1.27))))
        (number "16" (effects (font (size 1.27 1.27))))
      )
      (pin bidirectional line (at 8.89 11.43 180) (length 2.54)
        (name "DQ4" (effects (font (size 1.27 1.27))))
        (number "17" (effects (font (size 1.27 1.27))))
      )
      (pin input line (at 8.89 13.97 180) (length 2.54)
        (name "VSS" (effects (font (size 1.27 1.27))))
        (number "18" (effects (font (size 1.27 1.27))))
      )
      (pin bidirectional line (at -8.89 11.43 0) (length 2.54)
        (name "DQ1" (effects (font (size 1.27 1.27))))
        (number "2" (effects (font (size 1.27 1.27))))
      )
      (pin bidirectional line (at -8.89 8.89 0) (length 2.54)
        (name "DQ2" (effects (font (size 1.27 1.27))))
        (number "3" (effects (font (size 1.27 1.27))))
      )
      (pin input line (at -8.89 6.35 0) (length 2.54)
        (name "~{W}" (effects (font (size 1.27 1.27))))
        (number "4" (effects (font (size 1.27 1.27))))
      )
      (pin input line (at -8.89 3.81 0) (length 2.54)
        (name "~{RAS}" (effects (font (size 1.27 1.27))))
        (number "5" (effects (font (size 1.27 1.27))))
      )
      (pin input line (at -8.89 1.27 0) (length 2.54)
        (name "A6" (effects (font (size 1.27 1.27))))
        (number "6" (effects (font (size 1.27 1.27))))
      )
      (pin input line (at -8.89 -1.27 0) (length 2.54)
        (name "A5" (effects (font (size 1.27 1.27))))
        (number "7" (effects (font (size 1.27 1.27))))
      )
      (pin input line (at -8.89 -3.81 0) (length 2.54)
        (name "A4" (effects (font (size 1.27 1.27))))
        (number "8" (effects (font (size 1.27 1.27))))
      )
      (pin input line (at -8.89 -6.35 0) (length 2.54)
        (name "VDD" (effects (font (size 1.27 1.27))))
        (number "9" (effects (font (size 1.27 1.27))))
      )
    )
  )
  (symbol "TMS9118" (in_bom yes) (on_board yes)
    (property "Reference" "U" (id 0) (at 0 26.67 0)
      (effects (font (size 1.27 1.27)))
    )
    (property "Value" "TMS9118" (id 1) (at 0 -29.21 0)
      (effects (font (size 1.27 1.27)))
    )
    (property "Footprint" "Package_DIP:DIP-40_W15.24mm_Socket" (id 2) (at 0 29.21 0)
      (effects (font (size 1.27 1.27)) hide)
    )
    (property "Datasheet" "" (id 3) (at -13.97 22.86 0)
      (effects (font (size 1.27 1.27)) hide)
    )
    (symbol "TMS9118_0_0"
      (pin output line (at -13.97 22.86 0) (length 2.54)
        (name "~{RAS}" (effects (font (size 1.27 1.27))))
        (number "1" (effects (font (size 1.27 1.27))))
      )
      (pin output line (at -13.97 0 0) (length 2.54)
        (name "AD0" (effects (font (size 1.27 1.27))))
        (number "10" (effects (font (size 1.27 1.27))))
      )
      (pin output line (at -13.97 -2.54 0) (length 2.54)
        (name "R/~{W}" (effects (font (size 1.27 1.27))))
        (number "11" (effects (font (size 1.27 1.27))))
      )
      (pin input line (at -13.97 -5.08 0) (length 2.54)
        (name "VSS" (effects (font (size 1.27 1.27))))
        (number "12" (effects (font (size 1.27 1.27))))
      )
      (pin input line (at -13.97 -7.62 0) (length 2.54)
        (name "MODE" (effects (font (size 1.27 1.27))))
        (number "13" (effects (font (size 1.27 1.27))))
      )
      (pin input line (at -13.97 -10.16 0) (length 2.54)
        (name "~{CSW}" (effects (font (size 1.27 1.27))))
        (number "14" (effects (font (size 1.27 1.27))))
      )
      (pin input line (at -13.97 -12.7 0) (length 2.54)
        (name "~{CSR}" (effects (font (size 1.27 1.27))))
        (number "15" (effects (font (size 1.27 1.27))))
      )
      (pin output line (at -13.97 -15.24 0) (length 2.54)
        (name "~{INT}" (effects (font (size 1.27 1.27))))
        (number "16" (effects (font (size 1.27 1.27))))
      )
      (pin bidirectional line (at -13.97 -17.78 0) (length 2.54)
        (name "CD7" (effects (font (size 1.27 1.27))))
        (number "17" (effects (font (size 1.27 1.27))))
      )
      (pin bidirectional line (at -13.97 -20.32 0) (length 2.54)
        (name "CD6" (effects (font (size 1.27 1.27))))
        (number "18" (effects (font (size 1.27 1.27))))
      )
      (pin bidirectional line (at -13.97 -22.86 0) (length 2.54)
        (name "CD5" (effects (font (size 1.27 1.27))))
        (number "19" (effects (font (size 1.27 1.27))))
      )
      (pin output line (at -13.97 20.32 0) (length 2.54)
        (name "~{CAS}" (effects (font (size 1.27 1.27))))
        (number "2" (effects (font (size 1.27 1.27))))
      )
      (pin bidirectional line (at -13.97 -25.4 0) (length 2.54)
        (name "CD4" (effects (font (size 1.27 1.27))))
        (number "20" (effects (font (size 1.27 1.27))))
      )
      (pin bidirectional line (at 13.97 -25.4 180) (length 2.54)
        (name "CD3" (effects (font (size 1.27 1.27))))
        (number "21" (effects (font (size 1.27 1.27))))
      )
      (pin bidirectional line (at 13.97 -22.86 180) (length 2.54)
        (name "CD2" (effects (font (size 1.27 1.27))))
        (number "22" (effects (font (size 1.27 1.27))))
      )
      (pin bidirectional line (at 13.97 -20.32 180) (length 2.54)
        (name "CD1" (effects (font (size 1.27 1.27))))
        (number "23" (effects (font (size 1.27 1.27))))
      )
      (pin bidirectional line (at 13.97 -17.78 180) (length 2.54)
        (name "CD0" (effects (font (size 1.27 1.27))))
        (number "24" (effects (font (size 1.27 1.27))))
      )
      (pin bidirectional line (at 13.97 -15.24 180) (length 2.54)
        (name "RD7" (effects (font (size 1.27 1.27))))
        (number "25" (effects (font (size 1.27 1.27))))
      )
      (pin bidirectional line (at 13.97 -12.7 180) (length 2.54)
        (name "RD6" (effects (font (size 1.27 1.27))))
        (number "26" (effects (font (size 1.27 1.27))))
      )
      (pin bidirectional line (at 13.97 -10.16 180) (length 2.54)
        (name "RD5" (effects (font (size 1.27 1.27))))
        (number "27" (effects (font (size 1.27 1.27))))
      )
      (pin bidirectional line (at 13.97 -7.62 180) (length 2.54)
        (name "RD4" (effects (font (size 1.27 1.27))))
        (number "28" (effects (font (size 1.27 1.27))))
      )
      (pin bidirectional line (at 13.97 -5.08 180) (length 2.54)
        (name "RD3" (effects (font (size 1.27 1.27))))
        (number "29" (effects (font (size 1.27 1.27))))
      )
      (pin output line (at -13.97 17.78 0) (length 2.54)
        (name "AD7" (effects (font (size 1.27 1.27))))
        (number "3" (effects (font (size 1.27 1.27))))
      )
      (pin bidirectional line (at 13.97 -2.54 180) (length 2.54)
        (name "RD2" (effects (font (size 1.27 1.27))))
        (number "30" (effects (font (size 1.27 1.27))))
      )
      (pin bidirectional line (at 13.97 0 180) (length 2.54)
        (name "RD1" (effects (font (size 1.27 1.27))))
        (number "31" (effects (font (size 1.27 1.27))))
      )
      (pin bidirectional line (at 13.97 2.54 180) (length 2.54)
        (name "RD0" (effects (font (size 1.27 1.27))))
        (number "32" (effects (font (size 1.27 1.27))))
      )
      (pin input line (at 13.97 5.08 180) (length 2.54)
        (name "VCC" (effects (font (size 1.27 1.27))))
        (number "33" (effects (font (size 1.27 1.27))))
      )
      (pin input line (at 13.97 7.62 180) (length 2.54)
        (name "~{RESET}/SYNC" (effects (font (size 1.27 1.27))))
        (number "34" (effects (font (size 1.27 1.27))))
      )
      (pin input line (at 13.97 10.16 180) (length 2.54)
        (name "EXTVDP" (effects (font (size 1.27 1.27))))
        (number "35" (effects (font (size 1.27 1.27))))
      )
      (pin output line (at 13.97 12.7 180) (length 2.54)
        (name "COMVID" (effects (font (size 1.27 1.27))))
        (number "36" (effects (font (size 1.27 1.27))))
      )
      (pin no_connect line (at 13.97 15.24 180) (length 2.54)
        (name "NC" (effects (font (size 1.27 1.27))))
        (number "37" (effects (font (size 1.27 1.27))))
      )
      (pin output line (at 13.97 17.78 180) (length 2.54)
        (name "CPUCLK" (effects (font (size 1.27 1.27))))
        (number "38" (effects (font (size 1.27 1.27))))
      )
      (pin input line (at 13.97 20.32 180) (length 2.54)
        (name "XTAL2" (effects (font (size 1.27 1.27))))
        (number "39" (effects (font (size 1.27 1.27))))
      )
      (pin output line (at -13.97 15.24 0) (length 2.54)
        (name "AD6" (effects (font (size 1.27 1.27))))
        (number "4" (effects (font (size 1.27 1.27))))
      )
      (pin input line (at 13.97 22.86 180) (length 2.54)
        (name "XTAL1" (effects (font (size 1.27 1.27))))
        (number "40" (effects (font (size 1.27 1.27))))
      )
      (pin output line (at -13.97 12.7 0) (length 2.54)
        (name "AD5" (effects (font (size 1.27 1.27))))
        (number "5" (effects (font (size 1.27 1.27))))
      )
      (pin output line (at -13.97 10.16 0) (length 2.54)
        (name "AD4" (effects (font (size 1.27 1.27))))
        (number "6" (effects (font (size 1.27 1.27))))
      )
      (pin output line (at -13.97 7.62 0) (length 2.54)
        (name "AD3" (effects (font (size 1.27 1.27))))
        (number "7" (effects (font (size 1.27 1.27))))
      )
      (pin output line (at -13.97 5.08 0) (length 2.54)
        (name "AD2" (effects (font (size 1.27 1.27))))
        (number "8" (effects (font (size 1.27 1.27))))
      )
      (pin output line (at -13.97 2.54 0) (length 2.54)
        (name "AD1" (effects (font (size 1.27 1.27))))
        (number "9" (effects (font (size 1.27 1.27))))
      )
    )
    (symbol "TMS9118_0_1"
      (rectangle (start -11.43 25.4) (end 11.43 -27.94)
        (stroke (width 0) (type default) (color 0 0 0 0))
        (fill (type background))
      )
    )
  )
)
